…
    ## $ common_name        <chr> "BRANDON ELM", "JAPANESE ZELKOVA", "JAPANESE SNOWBE…
    ## $ assigned           <chr> "N", "N", "N", "Y", "N", "N", "N", "N", "N", "N", "…
    ## $ root_barrier       <chr> "N", "N", "N", "N", "N", "N", "N", "N", "N", "N", "…
    ## $ plant_area         <chr> "N", "N", "4", "4", "4", "B", "6", "6", "3", "3", "…
    ## $ on_street_block    <dbl> 400, 400, 4900, 800, 5000, 500, 4900, 4900, 4900, 7…
    ## $ on_street          <chr> "W 58TH AV", "W 58TH AV", "WINDSOR ST", "E 39TH AV"…
    ## $ neighbourhood_name <chr> "MARPOLE", "MARPOLE", "KENSINGTON-CEDAR COTTAGE", "…
    ## $ street_side_name   <chr> "EVEN", "EVEN", "EVEN", "EVEN", "EVEN", "ODD", "ODD…
    ## $ height_range_id    <dbl> 2, 4, 3, 4, 2, 2, 3, 3, 2, 2, 2, 5, 3, 2, 2, 2, 2, …
    ## $ diameter           <dbl> 10.00, 10.00, 4.00, 18.00, 9.00, 5.00, 15.00, 14.00…
    ## $ curb               <chr> "N", "N", "Y", "Y", "Y", "Y", "Y", "Y", "Y", "Y", "…
    ## $ date_planted       <date> 1999-01-13, 1996-05-31, 1993-11-22, 1996-04-29, 19…
    ## $ longitude          <dbl> -123.1161, -123.1147, -123.0846, -123.0870, -123.08…
    ## $ latitude           <dbl> 49.21776, 49.21776, 49.23938, 49.23469, 49.23894, 4…
    ## # A tibble: 146,611 × 20
    ##    tree_id civic_number std_st…¹ genus…² speci…³ culti…⁴ commo…⁵ assig…⁶ root_…⁷
    ##      <dbl>        <dbl> <chr>    <chr>   <chr>   <chr>   <chr>   <chr>   <chr>  
    ##  1  149556          494 W 58TH … ULMUS   AMERIC… BRANDON BRANDO… N       N      
    ##  2  149563          450 W 58TH … ZELKOVA SERRATA <NA>    JAPANE… N       N      
    ##  3  149579         4994 WINDSOR… STYRAX  JAPONI… <NA>    JAPANE… N       N      
    ##  4  149590          858 E 39TH … FRAXIN… AMERIC… AUTUMN… AUTUMN… Y       N      
    ##  5  149604         5032 WINDSOR… ACER    CAMPES… <NA>    HEDGE … N       N      
    ##  6  149616          585 W 61ST … PYRUS   CALLER… CHANTI… CHANTI… N       N      
    ##  7  149617         4909 SHERBRO… ACER    PLATAN… COLUMN… COLUMN… N       N      
    ##  8  149618         4925 SHERBRO… ACER    PLATAN… COLUMN… COLUMN… N       N      
    ##  9  149619         4969 SHERBRO… ACER    PLATAN… COLUMN… COLUMN… N       N      
    ## 10  149625          720 E 39TH … FRAXIN… AMERIC… AUTUMN… AUTUMN… N       N      
    ## 11  149626          736 E 39TH … TILIA   EUCHLO… <NA>    CRIMEA… N       N      
    ## 12  149636          812 E 39TH … TILIA   EUCHLO… <NA>    CRIMEA… Y       N      
    ## 13  149640         6968 SELKIRK… ACER    PLATAN… COLUMN… COLUMN… N       N      
    ## 14  149646          505 E 16TH … HIBISC… SYRIACA <NA>    ROSE O… N       N      
    ## 15  149647          509 E 16TH … STYRAX  JAPONI… <NA>    JAPANE… N       N      
    ## 16  149658         5208 WINDSOR… STYRAX  JAPONI… <NA>    JAPANE… N       N      
    ## 17  149673         5241 WINDSOR… FRAXIN… OXYCAR… RAYWOOD RAYWOO… N       N      
    ## 18  149680         5311 WINDSOR… ACER    CAMPES… <NA>    HEDGE … N       N      
    ## 19  149683         7011 SELKIRK… ACER    PLATAN… COLUMN… COLUMN… N       N      
    ## 20  149684         1223 W 54TH … ACER    PLATAN… COLUMN… COLUMN… N       N      
    ## # … with 146,591 more rows, 11 more variables: plant_area <chr>,
    ## #   on_street_block <dbl>, on_street <chr>, neighbourhood_name <chr>,
    ## #   street_side_name <chr>, height_range_id <dbl>, diameter <dbl>, curb <chr>,
    ## #   date_planted <date>, longitude <dbl>, latitude <dbl>, and abbreviated
    ## #   variable names ¹​std_street, ²​genus_name, ³​species_name, ⁴​cultivar_name,
    ## #   ⁵​common_name, ⁶​assigned, ⁷​root_barrier
…
    ## $ common_name        <chr> "BRANDON ELM", "JAPANESE ZELKOVA", "JAPANESE SNOWBE…
    ## $ assigned           <chr> "N", "N", "N", "Y", "N", "N", "N", "N", "N", "N", "…
    ## $ root_barrier       <chr> "N", "N", "N", "N", "N", "N", "N", "N", "N", "N", "…
    ## $ plant_area         <chr> "N", "N", "4", "4", "4", "B", "6", "6", "3", "3", "…
    ## $ on_street_block    <dbl> 400, 400, 4900, 800, 5000, 500, 4900, 4900, 4900, 7…
    ## $ on_street          <chr> "W 58TH AV", "W 58TH AV", "WINDSOR ST", "E 39TH AV"…
    ## $ neighbourhood_name <chr> "MARPOLE", "MARPOLE", "KENSINGTON-CEDAR COTTAGE", "…
    ## $ street_side_name   <chr> "EVEN", "EVEN", "EVEN", "EVEN", "EVEN", "ODD", "ODD…
    ## $ height_range_id    <dbl> 2, 4, 3, 4, 2, 2, 3, 3, 2, 2, 2, 5, 3, 2, 2, 2, 2, …
    ## $ diameter           <dbl> 10.00, 10.00, 4.00, 18.00, 9.00, 5.00, 15.00, 14.00…
    ## $ curb               <chr> "N", "N", "Y", "Y", "Y", "Y", "Y", "Y", "Y", "Y", "…
    ## $ date_planted       <date> 1999-01-13, 1996-05-31, 1993-11-22, 1996-04-29, 19…
    ## $ longitude          <dbl> -123.1161, -123.1147, -123.0846, -123.0870, -123.08…
    ## $ latitude           <dbl> 49.21776, 49.21776, 49.23938, 49.23469, 49.23894, 4…
    ## # A tibble: 146,611 × 20
    ##    tree_id civic_number std_st…¹ genus…² speci…³ culti…⁴ commo…⁵ assig…⁶ root_…⁷
    ##      <dbl>        <dbl> <chr>    <chr>   <chr>   <chr>   <chr>   <chr>   <chr>  
    ##  1  149556          494 W 58TH … ULMUS   AMERIC… BRANDON BRANDO… N       N      
    ##  2  149563          450 W 58TH … ZELKOVA SERRATA <NA>    JAPANE… N       N      
    ##  3  149579         4994 WINDSOR… STYRAX  JAPONI… <NA>    JAPANE… N       N      
    ##  4  149590          858 E 39TH … FRAXIN… AMERIC… AUTUMN… AUTUMN… Y       N      
    ##  5  149604         5032 WINDSOR… ACER    CAMPES… <NA>    HEDGE … N       N      
    ##  6  149616          585 W 61ST … PYRUS   CALLER… CHANTI… CHANTI… N       N      
    ##  7  149617         4909 SHERBRO… ACER    PLATAN… COLUMN… COLUMN… N       N      
    ##  8  149618         4925 SHERBRO… ACER    PLATAN… COLUMN… COLUMN… N       N      
    ##  9  149619         4969 SHERBRO… ACER    PLATAN… COLUMN… COLUMN… N       N      
    ## 10  149625          720 E 39TH … FRAXIN… AMERIC… AUTUMN… AUTUMN… N       N      
    ## # … with 146,601 more rows, 11 more variables: plant_area <chr>,
    ## #   on_street_block <dbl>, on_street <chr>, neighbourhood_name <chr>,
    ## #   street_side_name <chr>, height_range_id <dbl>, diameter <dbl>, curb <chr>,
    ## #   date_planted <date>, longitude <dbl>, latitude <dbl>, and abbreviated
    ## #   variable names ¹​std_street, ²​genus_name, ³​species_name, ⁴​cultivar_name,
    ## #   ⁵​common_name, ⁶​assigned, ⁷​root_barrier

**Tidying the data** At first I was confused why ‘std_street’ and
‘on_street’ were variables in the original data but rather than
simplifying these two variables together, I will combine these variables
with ‘civic_number’ and ‘on_street_block’ respectively to produce the
full house address and full block address of each tree.

``` r
vancouver_trees_tidy <- vancouver_trees %>%
  unite(col = house_address, c(civic_number, std_street), sep = "-") %>%
  unite(col = block_address, c(on_street_block, on_street), sep = "-") %>%
  print(n=10)
```

    ## # A tibble: 146,611 × 18
    ##    tree_id house_address genus…¹ speci…² culti…³ commo…⁴ assig…⁵ root_…⁶ plant…⁷
    ##      <dbl> <chr>         <chr>   <chr>   <chr>   <chr>   <chr>   <chr>   <chr>  
    ##  1  149556 494-W 58TH AV ULMUS   AMERIC… BRANDON BRANDO… N       N       N      
    ##  2  149563 450-W 58TH AV ZELKOVA SERRATA <NA>    JAPANE… N       N       N      
    ##  3  149579 4994-WINDSOR… STYRAX  JAPONI… <NA>    JAPANE… N       N       4      
    ##  4  149590 858-E 39TH AV FRAXIN… AMERIC… AUTUMN… AUTUMN… Y       N       4      
    ##  5  149604 5032-WINDSOR… ACER    CAMPES… <NA>    HEDGE … N       N       4      
    ##  6  149616 585-W 61ST AV PYRUS   CALLER… CHANTI… CHANTI… N       N       B      
    ##  7  149617 4909-SHERBRO… ACER    PLATAN… COLUMN… COLUMN… N       N       6      
    ##  8  149618 4925-SHERBRO… ACER    PLATAN… COLUMN… COLUMN… N       N       6      
    ##  9  149619 4969-SHERBRO… ACER    PLATAN… COLUMN… COLUMN… N       N       3      
    ## 10  149625 720-E 39TH AV FRAXIN… AMERIC… AUTUMN… AUTUMN… N       N       3      
    ## # … with 146,601 more rows, 9 more variables: block_address <chr>,
    ## #   neighbourhood_name <chr>, street_side_name <chr>, height_range_id <dbl>,
    ## #   diameter <dbl>, curb <chr>, date_planted <date>, longitude <dbl>,
    ## #   latitude <dbl>, and abbreviated variable names ¹​genus_name, ²​species_name,
    ## #   ³​cultivar_name, ⁴​common_name, ⁵​assigned, ⁶​root_barrier, ⁷​plant_area
…
``` r
vancouver_trees_untidy <- vancouver_trees_tidy %>%
  separate(col = house_address, c("civic_number", "std_street"), sep = '-') %>%
  separate(col = block_address, c("on_street_block", "on_street"), sep = '-') %>%
  print(n=10)
```

    ## Warning: Expected 2 pieces. Additional pieces discarded in 11 rows [6011, 24172,
    ## 49290, 49291, 80989, 80990, 82452, 82453, 88280, 113473, 137060].

    ## Warning: Expected 2 pieces. Additional pieces discarded in 10 rows [6011, 24172,
    ## 49290, 49291, 82452, 82453, 88280, 113473, 113854, 137060].

    ## # A tibble: 146,611 × 20
    ##    tree_id civic_number std_st…¹ genus…² speci…³ culti…⁴ commo…⁵ assig…⁶ root_…⁷
    ##      <dbl> <chr>        <chr>    <chr>   <chr>   <chr>   <chr>   <chr>   <chr>  
    ##  1  149556 494          W 58TH … ULMUS   AMERIC… BRANDON BRANDO… N       N      
    ##  2  149563 450          W 58TH … ZELKOVA SERRATA <NA>    JAPANE… N       N      
    ##  3  149579 4994         WINDSOR… STYRAX  JAPONI… <NA>    JAPANE… N       N      
    ##  4  149590 858          E 39TH … FRAXIN… AMERIC… AUTUMN… AUTUMN… Y       N      
    ##  5  149604 5032         WINDSOR… ACER    CAMPES… <NA>    HEDGE … N       N      
    ##  6  149616 585          W 61ST … PYRUS   CALLER… CHANTI… CHANTI… N       N      
    ##  7  149617 4909         SHERBRO… ACER    PLATAN… COLUMN… COLUMN… N       N      
    ##  8  149618 4925         SHERBRO… ACER    PLATAN… COLUMN… COLUMN… N       N      
    ##  9  149619 4969         SHERBRO… ACER    PLATAN… COLUMN… COLUMN… N       N      
    ## 10  149625 720          E 39TH … FRAXIN… AMERIC… AUTUMN… AUTUMN… N       N      
    ## # … with 146,601 more rows, 11 more variables: plant_area <chr>,
    ## #   on_street_block <chr>, on_street <chr>, neighbourhood_name <chr>,
    ## #   street_side_name <chr>, height_range_id <dbl>, diameter <dbl>, curb <chr>,
    ## #   date_planted <date>, longitude <dbl>, latitude <dbl>, and abbreviated
    ## #   variable names ¹​std_street, ²​genus_name, ³​species_name, ⁴​cultivar_name,
    ## #   ⁵​common_name, ⁶​assigned, ⁷​root_barrier
…
``` r
vancouver_trees %>%
group_by(genus_name) %>%
summarize(count = n()) %>%
arrange(desc(count))
```

    ## # A tibble: 97 × 2
    ##    genus_name count
    ##    <chr>      <int>
    ##  1 ACER       36062
    ##  2 PRUNUS     30683
    ##  3 FRAXINUS    7381
    ##  4 TILIA       6773
    ##  5 QUERCUS     6119
    ##  6 CARPINUS    5806
    ##  7 FAGUS       4808
    ##  8 MALUS       4173
    ##  9 MAGNOLIA    3899
    ## 10 CRATAEGUS   3864
    ## # … with 87 more rows
…
<!--------------------------- Start your work below --------------------------->

``` r
#Choosing trees in the Acer genus
vancouver_trees_acer <- vancouver_trees %>%
  filter(genus_name == "ACER")

#Finding the 4 most common species under the Acer genus
vancouver_trees_acer %>%
  group_by(species_name) %>%
  summarize(count = n()) %>%
  arrange(desc(count))
```

    ## # A tibble: 31 × 2
    ##    species_name   count
    ##    <chr>          <int>
    ##  1 PLATANOIDES    11963
    ##  2 RUBRUM          8467
    ##  3 FREEMANI   X    4164
    ##  4 CAMPESTRE       3477
    ##  5 PSEUDOPLATANUS  2091
    ##  6 TRUNCATUM       1918
    ##  7 PALMATUM        1037
    ##  8 GRISEUM          510
    ##  9 CAPPADOCICUM     417
    ## 10 MACROPHYLLUM     398
    ## # … with 21 more rows

``` r
#Filtering the dataset to have only the 4 most common species and selecting variables that I will be looking at
vancouver_trees_4subset <- vancouver_trees_acer %>%
  filter(species_name %in% c("PLATANOIDES", "RUBRUM", "FREEMANI X", "CAMPESTRE")) %>%
  select(c("tree_id", "species_name", "root_barrier", "height_range_id", "diameter", "date_planted")) %>%
  print(n=5)
```

    ## # A tibble: 23,907 × 6
    ##   tree_id species_name root_barrier height_range_id diameter date_planted
    ##     <dbl> <chr>        <chr>                  <dbl>    <dbl> <date>      
    ## 1  149604 CAMPESTRE    N                          2        9 1993-12-17  
    ## 2  149617 PLATANOIDES  N                          3       15 1993-12-16  
    ## 3  149618 PLATANOIDES  N                          3       14 1993-12-16  
    ## 4  149619 PLATANOIDES  N                          2       16 1993-12-16  
    ## 5  149640 PLATANOIDES  N                          3       18 1993-12-15  
    ## # … with 23,902 more rows
…
    ## [1] "very small" "small"      "moderate"   "large"      "very large"

``` r
vancouver_trees_dfct
```

    ## # A tibble: 23,907 × 7
    ##    tree_id species_name root_barrier height_range_id diameter date_pla…¹ diame…²
    ##      <dbl> <chr>        <chr>                  <dbl>    <dbl> <date>     <fct>  
    ##  1  149604 CAMPESTRE    N                          2     9    1993-12-17 very s…
    ##  2  149617 PLATANOIDES  N                          3    15    1993-12-16 small  
    ##  3  149618 PLATANOIDES  N                          3    14    1993-12-16 small  
    ##  4  149619 PLATANOIDES  N                          2    16    1993-12-16 small  
    ##  5  149640 PLATANOIDES  N                          3    18    1993-12-15 small  
    ##  6  149680 CAMPESTRE    N                          2    10.2  1993-12-20 small  
    ##  7  149683 PLATANOIDES  N                          3    19.5  1993-12-15 small  
    ##  8  149684 PLATANOIDES  N                          2    14    1993-12-15 small  
    ##  9  149686 CAMPESTRE    N                          2     9.75 1993-12-15 very s…
    ## 10  149694 PLATANOIDES  N                          3    13.5  1993-12-09 small  
    ## # … with 23,897 more rows, and abbreviated variable names ¹​date_planted,
    ## #   ²​diameter_level
…
    ## The following objects are masked from 'package:base':
    ## 
    ##     date, intersect, setdiff, union

``` r
#Filtering the dataset to only have trees planted starting from 2000 until now
vancouver_trees_2000 <- vancouver_trees_4subset %>%
  filter(date_planted >= "2000-01-01") %>%
  arrange(date_planted) %>%
  print(n=5)
```

    ## # A tibble: 8,332 × 6
    ##   tree_id species_name root_barrier height_range_id diameter date_planted
    ##     <dbl> <chr>        <chr>                  <dbl>    <dbl> <date>      
    ## 1  181932 RUBRUM       N                          3      5   2000-01-07  
    ## 2  181930 RUBRUM       N                          2      3   2000-01-07  
    ## 3  181933 RUBRUM       N                          3      4   2000-01-07  
    ## 4  174282 RUBRUM       N                          4     13.5 2000-01-07  
    ## 5  182615 CAMPESTRE    N                          1      3   2000-01-08  
    ## # … with 8,327 more rows

``` r
vancouver_trees_date <- vancouver_trees_2000 %>%
  mutate(quarter_planted = quarter(date_planted)) %>%
  print(n=5)
```

    ## # A tibble: 8,332 × 7
    ##   tree_id species_name root_barrier height_range_id diameter date_plan…¹ quart…²
    ##     <dbl> <chr>        <chr>                  <dbl>    <dbl> <date>        <int>
    ## 1  181932 RUBRUM       N                          3      5   2000-01-07        1
    ## 2  181930 RUBRUM       N                          2      3   2000-01-07        1
    ## 3  181933 RUBRUM       N                          3      4   2000-01-07        1
    ## 4  174282 RUBRUM       N                          4     13.5 2000-01-07        1
    ## 5  182615 CAMPESTRE    N                          1      3   2000-01-08        1
    ## # … with 8,327 more rows, and abbreviated variable names ¹​date_planted,
    ## #   ²​quarter_planted
…
