…
    ## [1] 0

``` r
median(vancouver_trees$diameter) #9
```

    ## [1] 9

``` r
#After knowing the max, min, and median values of diameter, I was surprised to know that the median was 9 which is so much closer to the min than max so I want to filter all the trees that have a diameter less than 9 to see what is going on.

filter(vancouver_trees, diameter < 9) 
```

    ## # A tibble: 71,893 × 20
    ##    tree_id civic_number std_st…¹ genus…² speci…³ culti…⁴ commo…⁵ assig…⁶ root_…⁷
    ##      <dbl>        <dbl> <chr>    <chr>   <chr>   <chr>   <chr>   <chr>   <chr>  
    ##  1  149579         4994 WINDSOR… STYRAX  JAPONI… <NA>    JAPANE… N       N      
    ##  2  149616          585 W 61ST … PYRUS   CALLER… CHANTI… CHANTI… N       N      
    ##  3  149625          720 E 39TH … FRAXIN… AMERIC… AUTUMN… AUTUMN… N       N      
    ##  4  149626          736 E 39TH … TILIA   EUCHLO… <NA>    CRIMEA… N       N      
    ##  5  149646          505 E 16TH … HIBISC… SYRIACA <NA>    ROSE O… N       N      
    ##  6  149647          509 E 16TH … STYRAX  JAPONI… <NA>    JAPANE… N       N      
    ##  7  149658         5208 WINDSOR… STYRAX  JAPONI… <NA>    JAPANE… N       N      
    ##  8  155226         4525 CLAREND… LIQUID… STYRAC… <NA>    AMERIC… N       N      
    ##  9  155398         1402 MCRAE AV STYRAX  JAPONI… <NA>    JAPANE… N       N      
    ## 10  155416         1394 ROBSON … ROBINIA PSEUDO… <NA>    BLACK … N       N      
    ## # … with 71,883 more rows, 11 more variables: plant_area <chr>,
    ## #   on_street_block <dbl>, on_street <chr>, neighbourhood_name <chr>,
    ## #   street_side_name <chr>, height_range_id <dbl>, diameter <dbl>, curb <chr>,
    ## #   date_planted <date>, longitude <dbl>, latitude <dbl>, and abbreviated
    ## #   variable names ¹​std_street, ²​genus_name, ³​species_name, ⁴​cultivar_name,
    ## #   ⁵​common_name, ⁶​assigned, ⁷​root_barrier
…
